HappyR {torch} {tabnet} and friends
…
Prediction

predict(ames_fit, ames) 

# A tibble: 2,930 × 1
   .pred
   <dbl>
 1  2.13
 2  4.31
 3  3.38
 4  2.96
 5  4.43
 6  2.78
 7  3.53
 8  2.31
 9  2.21
10  2.08
# ℹ 2,920 more rows
…
